
  _,-----,____g===;,
<'.._____,-------g  ;
                   \   \,
                     q   q,
                      q    q,
                     [='     q
                       `;  O  p
                         k  O  p -{0
                          l  O  p -o
                          ,i     p
                           P  O   |
                         q:|   O| |BD
                            [   | P b
                            |   |  |____________
                          [ |   |  |\         /
                          | '   |  P :       ;
                          | [   0   Q:  ( )  ;
                           [ P  ( )  |;  ( ) ;
                           :Q  ( )  V        p
                            \   [           ;
                             \',     O    /
                               ' ; _ . '
